{
  "bot": {
    "name": "My Bot Name",
    "token": "Go to https://discord.com/developers/applications to get your bot token",
    "logger_name": "discord.bot.mybot",
    "logger_mode": "DEBUG"
  },
  "log_settings": {
    "file": "discord.log",
    "encoding": "utf-8",
    "format": "%(asctime)s\t::\t%(name)s\n%(levelname)s\t::\t%(message)s\n",
    "time_format": "[%m/%d/%Y - %I:%M:%S %p]",
    "logger_mode": "INFO"
  }
}